{
  "path_apps": "/Volumes/SD_Local/Users/vadim7j7/tmp/apps",
  "path_cdn": "/Volumes/SD_Local/Users/vadim7j7/tmp/cdn",
  "path_setting": "/Volumes/SD_Local/Users/vadim7j7/tmp/settings",
  "app_name": "promomo",
  "repository": {
    "url": "git@bitbucket.org:Vadim7j7/promomo.git",
    "branch": "beta"
  },
  "links_cdn": [
    ["static/images/avatars", "avatars"],
    ["static/images/photos", "photos"],
    ["static/tmp", "tmp"]
  ],
  "link_settings": [
    {"dir": ["setting", "__init__.py"], "name": "setting.py"}
  ],
  "commands": {
    "start": "service supervisor start",
    "stop": "service supervisor stop"
  }
}
